Tidy Tuesday NHL
…
		Tidy Tuesday NHL

Okay, here it is. My first contribution to the my website. I’ll try to make a very quick and simple data exploration analysis for this weeks’ Tidy Tuesday. There are three datasets available. I’m not sure that I’ll be able to analyze all of them… Let’s start from the first top_250.

library(tidyverse)
library(atslib)
library(extrafont)
library(hrbrthemes)
theme_set(hrbrthemes::theme_ft_rc(base_family = "Ubuntu Condensed"))

top_250 <- readr::read_csv('https://raw.githubusercontent.com/rfordatascience/tidytuesday/master/data/2020/2020-03-03/top_250.csv')

top_250

## # A tibble: 251 x 9
##    raw_rank player  years total_goals url_number raw_link link   active yr_start
##       <dbl> <chr>   <chr>       <dbl>      <dbl> <chr>    <chr>  <chr>     <dbl>
##  1        1 Wayne ~ 1979~         894          1 /player~ https~ Retir~     1979
##  2        2 Gordie~ 1946~         801          2 /player~ https~ Retir~     1946
##  3        3 Jaromi~ 1990~         766          3 /player~ https~ Retir~     1990
##  4        4 Brett ~ 1986~         741          4 /player~ https~ Retir~     1986
##  5        5 Marcel~ 1971~         731          5 /player~ https~ Retir~     1971
##  6        6 Phil E~ 1963~         717          6 /player~ https~ Retir~     1963
##  7        7 Mike G~ 1979~         708          7 /player~ https~ Retir~     1979
##  8        8 Alex O~ 2005~         700          8 /player~ https~ Active     2005
##  9        9 Mark M~ 1979~         694          9 /player~ https~ Retir~     1979
## 10       10 Steve ~ 1983~         692         10 /player~ https~ Retir~     1983
## # ... with 241 more rows
…
tidy_250

## # A tibble: 251 x 4
##    player        total_goals year_start year_end
##    <chr>               <dbl>      <dbl>    <dbl>
##  1 Wayne Gretzky         894       1979     1999
##  2 Gordie Howe           801       1946     1980
##  3 Jaromir Jagr          766       1990     2018
##  4 Brett Hull            741       1986     2006
##  5 Marcel Dionne         731       1971     1989
##  6 Phil Esposito         717       1963     1981
##  7 Mike Gartner          708       1979     1998
##  8 Alex Ovechkin         700       2005     2020
##  9 Mark Messier          694       1979     2004
## 10 Steve Yzerman         692       1983     2006
## # ... with 241 more rows
…
